Lab4
…
Part 2(A)

1

library(tidyr)
defClean %>% gather( Statistic,value , Tackles_Solo:Pass_PB)

## # A tibble: 4,014 x 4
##    Name           Opponent_Opponent Statistic    value
##    <fct>          <fct>             <chr>        <dbl>
##  1 Eisworth, Greg Iowa              Tackles_Solo     3
##  2 Eisworth, Greg Oklahoma          Tackles_Solo     6
##  3 Eisworth, Greg Akron             Tackles_Solo     7
##  4 Eisworth, Greg TCU               Tackles_Solo     6
##  5 Eisworth, Greg Oklahoma State    Tackles_Solo     3
##  6 Eisworth, Greg West Virginia     Tackles_Solo     5
##  7 Eisworth, Greg Texas Tech        Tackles_Solo     3
##  8 Eisworth, Greg Kansas            Tackles_Solo     7
##  9 Eisworth, Greg Baylor            Tackles_Solo     2
## 10 Eisworth, Greg Texas             Tackles_Solo     9
## #  with 4,004 more rows
…
Part 3

1.

offClean %>%
  inner_join(bioClean, by=c("Name"="Name"))

## Warning: Column `Name` joining factors with different levels, coercing to
## character vector

## # A tibble: 163 x 19
##    Name  Opponent_Oppone Receiving_REC Receiving_YDS Receiving_TD
##    <chr> <fct>                    <dbl>         <dbl>        <dbl>
##  1 Jone Iowa                         1            31            0
##  2 Jone Oklahoma                     9            66            0
##  3 Jone Akron                        6            39            0
##  4 Jone TCU                          3            23            0
##  5 Jone Oklahoma State               6            37            1
##  6 Jone West Virginia                1            32            1
##  7 Jone Texas Tech                   1             4            0
##  8 Jone Kansas                       4            31            0
##  9 Jone Baylor                       4            39            1
## 10 Jone Texas                        0             0            0
## #  with 153 more rows, and 14 more variables: Rushing_ATT <dbl>,
## #   Rushing_YDS <dbl>, Rushing_TD <dbl>, `Passing_CMP-ATT` <dbl>,
## #   Passing_YDS <dbl>, Passing_TD <dbl>, Passing_INT <dbl>,
## #   Position <chr>, Height <chr>, Weight <dbl>, Class <chr>, City <chr>,
## #   State <chr>, Highschool <chr>
…
